<?xml version="1.0" encoding="utf-8"?>
<!-- Generator: Adobe Illustrator 16.0.4, SVG Export Plug-In . SVG Version: 6.00 Build 0)  -->
<!DOCTYPE svg PUBLIC "-//W3C//DTD SVG 1.1//EN" "http://www.w3.org/Graphics/SVG/1.1/DTD/svg11.dtd">
<svg version="1.1" id="Calque_1" xmlns="http://www.w3.org/2000/svg" xmlns:xlink="http://www.w3.org/1999/xlink" x="0px" y="0px"
	 width="625.053px" height="310.673px" viewBox="0 0 625.053 310.673" enable-background="new 0 0 625.053 310.673"
	 xml:space="preserve">
<rect x="1.061" y="209.392" fill="none" width="622.933" height="101.281"/>
<text transform="matrix(1 0 0 1 225.7881 263.5757)" fill="#FFFFFF" font-family="'Microsoft-Yi-Baiti'" font-size="101.2786">Paris</text>
<g>
	<path fill="#FFFFFF" stroke="#FFFFFF" stroke-width="8.4399" stroke-miterlimit="10" d="M74.227,89.831
		c0,1.697-1.382,3.078-3.081,3.078s-3.083-1.381-3.083-3.078c0-1.703,1.385-3.083,3.083-3.083S74.227,88.127,74.227,89.831z"/>
	<path fill="#FFFFFF" stroke="#FFFFFF" stroke-width="8.4399" stroke-miterlimit="10" d="M100.578,89.831
		c0,1.697-1.377,3.078-3.082,3.078c-1.699,0-3.075-1.381-3.075-3.078c0-1.703,1.376-3.083,3.075-3.083
		C99.201,86.748,100.578,88.127,100.578,89.831z"/>
	<path fill="#FFFFFF" stroke="#FFFFFF" stroke-width="8.4399" stroke-miterlimit="10" d="M92.361,19.442
		c0,1.703-1.376,3.083-3.083,3.083c-1.696,0-3.073-1.381-3.073-3.083c0-1.698,1.377-3.078,3.073-3.078
		C90.984,16.365,92.361,17.745,92.361,19.442z"/>
	<path fill="#FFFFFF" stroke="#FFFFFF" stroke-width="8.4399" stroke-miterlimit="10" d="M69.084,7.813
		c0,1.697-1.375,3.078-3.081,3.078c-1.699,0-3.076-1.38-3.076-3.078c0-1.702,1.377-3.083,3.076-3.083
		C67.709,4.731,69.084,6.111,69.084,7.813z"/>
	<path fill="#FFFFFF" stroke="#FFFFFF" stroke-width="8.4399" stroke-miterlimit="10" d="M68.524,124.744
		c0,1.701-1.376,3.082-3.083,3.082c-1.697,0-3.074-1.381-3.074-3.082c0-1.698,1.377-3.079,3.074-3.079
		C67.148,121.666,68.524,123.046,68.524,124.744z"/>
	<path fill="#FFFFFF" stroke="#FFFFFF" stroke-width="8.4399" stroke-miterlimit="10" d="M100.578,113.101
		c0,1.703-1.377,3.083-3.082,3.083c-1.699,0-3.075-1.381-3.075-3.083c0-1.697,1.376-3.077,3.075-3.077
		C99.201,110.024,100.578,111.404,100.578,113.101z"/>
	<path fill="#FFFFFF" stroke="#FFFFFF" stroke-width="8.4399" stroke-miterlimit="10" d="M45.809,7.302
		c0,1.698-1.376,3.079-3.074,3.079c-1.706,0-3.083-1.381-3.083-3.079c0-1.702,1.376-3.083,3.083-3.083
		C44.433,4.22,45.809,5.601,45.809,7.302z"/>
	<path fill="#FFFFFF" stroke="#FFFFFF" stroke-width="8.4399" stroke-miterlimit="10" d="M22.196,20.004
		c0,1.702-1.377,3.078-3.074,3.078c-1.706,0-3.083-1.376-3.083-3.078c0-1.703,1.377-3.083,3.083-3.083
		C20.819,16.921,22.196,18.301,22.196,20.004z"/>
	<path fill="#FFFFFF" stroke="#FFFFFF" stroke-width="8.4399" stroke-miterlimit="10" d="M10.385,43.278
		c0,1.699-1.377,3.08-3.082,3.08c-1.698,0-3.083-1.381-3.083-3.08c0-1.702,1.385-3.083,3.083-3.083
		C9.008,40.196,10.385,41.577,10.385,43.278z"/>
	<path fill="#FFFFFF" stroke="#FFFFFF" stroke-width="8.4399" stroke-miterlimit="10" d="M10.385,65.87
		c0,1.703-1.377,3.083-3.082,3.083c-1.698,0-3.083-1.38-3.083-3.083c0-1.701,1.385-3.079,3.083-3.079
		C9.008,62.792,10.385,64.169,10.385,65.87z"/>
	<path fill="#FFFFFF" stroke="#FFFFFF" stroke-width="8.4399" stroke-miterlimit="10" d="M21.857,113.101
		c0,1.703-1.376,3.083-3.082,3.083c-1.699,0-3.075-1.381-3.075-3.083c0-1.697,1.376-3.077,3.075-3.077
		C20.481,110.024,21.857,111.404,21.857,113.101z"/>
	<path fill="#FFFFFF" stroke="#FFFFFF" stroke-width="8.4399" stroke-miterlimit="10" d="M10.896,92.909
		c0,1.702-1.368,3.083-3.074,3.083c-1.706,0-3.083-1.381-3.083-3.083s1.377-3.078,3.083-3.078
		C9.527,89.831,10.896,91.207,10.896,92.909z"/>
	<path fill="#FFFFFF" stroke="#FFFFFF" stroke-width="8.4399" stroke-miterlimit="10" d="M46.839,124.744
		c0,1.701-1.375,3.082-3.073,3.082c-1.707,0-3.083-1.381-3.083-3.082c0-1.698,1.376-3.079,3.083-3.079
		C45.463,121.666,46.839,123.046,46.839,124.744z"/>
	<path fill="#FFFFFF" stroke="#FFFFFF" stroke-width="8.4399" stroke-miterlimit="10" d="M143.858,122.176
		c0,3.297-2.67,5.971-5.969,5.971c-3.296,0-5.967-2.674-5.967-5.971c0-3.292,2.67-5.967,5.967-5.967
		C141.188,116.209,143.858,118.883,143.858,122.176z"/>
	<path fill="#FFFFFF" stroke="#FFFFFF" stroke-width="8.4399" stroke-miterlimit="10" d="M185.462,124.744
		c0,1.701-1.385,3.082-3.082,3.082c-1.699,0-3.083-1.381-3.083-3.082c0-1.698,1.384-3.079,3.083-3.079
		C184.077,121.666,185.462,123.046,185.462,124.744z"/>
	<path fill="#FFFFFF" stroke="#FFFFFF" stroke-width="8.4399" stroke-miterlimit="10" d="M219.346,7.302
		c0,1.698-1.376,3.079-3.082,3.079c-1.699,0-3.075-1.381-3.075-3.079c0-1.702,1.376-3.083,3.075-3.083
		C217.97,4.22,219.346,5.601,219.346,7.302z"/>
	<path fill="#FFFFFF" stroke="#FFFFFF" stroke-width="8.4399" stroke-miterlimit="10" d="M265.551,124.744
		c0,1.701-1.376,3.082-3.073,3.082c-1.707,0-3.083-1.381-3.083-3.082c0-1.698,1.376-3.079,3.083-3.079
		C264.174,121.666,265.551,123.046,265.551,124.744z"/>
	<path fill="#FFFFFF" stroke="#FFFFFF" stroke-width="8.4399" stroke-miterlimit="10" d="M300.464,8.37
		c0,1.702-1.376,3.078-3.082,3.078c-1.699,0-3.075-1.375-3.075-3.078c0-1.702,1.376-3.083,3.075-3.083
		C299.088,5.287,300.464,6.668,300.464,8.37z"/>
	<path fill="#FFFFFF" stroke="#FFFFFF" stroke-width="8.4399" stroke-miterlimit="10" d="M301.494,124.744
		c0,1.701-1.385,3.082-3.082,3.082c-1.699,0-3.083-1.381-3.083-3.082c0-1.698,1.384-3.079,3.083-3.079
		C300.109,121.666,301.494,123.046,301.494,124.744z"/>
	<path fill="#FFFFFF" stroke="#FFFFFF" stroke-width="8.4399" stroke-miterlimit="10" d="M388.77,122.176
		c0,1.702-1.375,3.079-3.073,3.079c-1.707,0-3.084-1.376-3.084-3.079c0-1.701,1.377-3.082,3.084-3.082
		C387.395,119.094,388.77,120.475,388.77,122.176z"/>
	<path fill="#FFFFFF" stroke="#FFFFFF" stroke-width="8.4399" stroke-miterlimit="10" d="M423.682,7.854
		c0,1.697-1.374,3.078-3.08,3.078c-1.699,0-3.075-1.381-3.075-3.078c0-1.702,1.376-3.083,3.075-3.083
		C422.308,4.772,423.682,6.153,423.682,7.854z"/>
	<path fill="#FFFFFF" stroke="#FFFFFF" stroke-width="8.4399" stroke-miterlimit="10" d="M471.603,122.176
		c0,1.702-1.377,3.083-3.075,3.083c-1.705,0-3.082-1.381-3.082-3.083c0-1.697,1.377-3.078,3.082-3.078
		C470.226,119.098,471.603,120.479,471.603,122.176z"/>
	<path fill="#FFFFFF" stroke="#FFFFFF" stroke-width="8.4399" stroke-miterlimit="10" d="M504.803,124.744
		c0,1.701-1.379,3.082-3.084,3.082c-1.698,0-3.075-1.381-3.075-3.082c0-1.698,1.377-3.079,3.075-3.079
		C503.424,121.666,504.803,123.046,504.803,124.744z"/>
	<path fill="#FFFFFF" stroke="#FFFFFF" stroke-width="8.4399" stroke-miterlimit="10" d="M504.803,7.854
		c0,1.697-1.379,3.078-3.084,3.078c-1.698,0-3.075-1.381-3.075-3.078c0-1.702,1.377-3.083,3.075-3.083
		C503.424,4.772,504.803,6.153,504.803,7.854z"/>
	<path fill="#FFFFFF" stroke="#FFFFFF" stroke-width="8.4399" stroke-miterlimit="10" d="M539.716,124.229
		c0,1.702-1.376,3.083-3.083,3.083s-3.084-1.381-3.084-3.083c0-1.703,1.377-3.078,3.084-3.078S539.716,122.526,539.716,124.229z"/>
	<path fill="#FFFFFF" stroke="#FFFFFF" stroke-width="8.4399" stroke-miterlimit="10" d="M539.716,7.302
		c0,1.698-1.376,3.079-3.083,3.079S533.549,9,533.549,7.302c0-1.702,1.377-3.083,3.084-3.083S539.716,5.601,539.716,7.302z"/>
	<path fill="#FFFFFF" stroke="#FFFFFF" stroke-width="8.4399" stroke-miterlimit="10" d="M620.833,124.744
		c0,1.701-1.375,3.082-3.082,3.082c-1.698,0-3.075-1.381-3.075-3.082c0-1.698,1.377-3.079,3.075-3.079
		C619.458,121.666,620.833,123.046,620.833,124.744z"/>
	<path fill="#FFFFFF" stroke="#FFFFFF" stroke-width="8.4399" stroke-miterlimit="10" d="M620.833,7.854
		c0,1.697-1.375,3.078-3.082,3.078c-1.698,0-3.075-1.381-3.075-3.078c0-1.702,1.377-3.083,3.075-3.083
		C619.458,4.772,620.833,6.153,620.833,7.854z"/>
	<path fill="#FFFFFF" stroke="#FFFFFF" stroke-width="8.4399" stroke-miterlimit="10" d="M504.803,89.831
		c0,1.697-1.379,3.078-3.084,3.078c-1.698,0-3.075-1.381-3.075-3.078c0-1.703,1.377-3.083,3.075-3.083
		C503.424,86.748,504.803,88.127,504.803,89.831z"/>
	<path fill="#FFFFFF" stroke="#FFFFFF" stroke-width="8.4399" stroke-miterlimit="10" d="M579.754,65.87
		c0,1.703-1.377,3.083-3.073,3.083c-1.707,0-3.083-1.38-3.083-3.083c0-1.701,1.376-3.079,3.083-3.079
		C578.377,62.792,579.754,64.169,579.754,65.87z"/>
	<path fill="#FFFFFF" stroke="#FFFFFF" stroke-width="8.4399" stroke-miterlimit="10" d="M504.803,66.896
		c0,1.703-1.379,3.083-3.084,3.083c-1.698,0-3.075-1.38-3.075-3.083c0-1.697,1.377-3.077,3.075-3.077
		C503.424,63.819,504.803,65.199,504.803,66.896z"/>
	<path fill="#FFFFFF" stroke="#FFFFFF" stroke-width="8.4399" stroke-miterlimit="10" d="M447.132,65.87
		c0,1.703-1.385,3.083-3.083,3.083c-1.697,0-3.081-1.38-3.081-3.083c0-1.701,1.384-3.079,3.081-3.079
		C445.748,62.792,447.132,64.169,447.132,65.87z"/>
	<path fill="#FFFFFF" stroke="#FFFFFF" stroke-width="8.4399" stroke-miterlimit="10" d="M405.708,65.87
		c0,1.703-1.377,3.083-3.083,3.083c-1.697,0-3.073-1.38-3.073-3.083c0-1.701,1.376-3.079,3.073-3.079
		C404.331,62.792,405.708,64.169,405.708,65.87z"/>
	<path fill="#FFFFFF" stroke="#FFFFFF" stroke-width="8.4399" stroke-miterlimit="10" d="M300.464,65.87
		c0,1.703-1.376,3.083-3.082,3.083c-1.699,0-3.075-1.38-3.075-3.083c0-1.701,1.376-3.079,3.075-3.079
		C299.088,62.792,300.464,64.169,300.464,65.87z"/>
	<path fill="#FFFFFF" stroke="#FFFFFF" stroke-width="8.4399" stroke-miterlimit="10" d="M242.449,65.87
		c0,1.703-1.384,3.083-3.083,3.083s-3.084-1.38-3.084-3.083c0-1.701,1.385-3.079,3.084-3.079S242.449,64.169,242.449,65.87z"/>
	<path fill="#FFFFFF" stroke="#FFFFFF" stroke-width="8.4399" stroke-miterlimit="10" d="M202.409,66.896
		c0,1.703-1.385,3.083-3.083,3.083c-1.697,0-3.081-1.38-3.081-3.083c0-1.697,1.384-3.077,3.081-3.077
		C201.024,63.819,202.409,65.199,202.409,66.896z"/>
	<path fill="#FFFFFF" stroke="#FFFFFF" stroke-width="8.4399" stroke-miterlimit="10" d="M458.26,89.831
		c0,1.697-1.386,3.078-3.084,3.078s-3.081-1.381-3.081-3.078c0-1.703,1.383-3.083,3.081-3.083S458.26,88.127,458.26,89.831z"/>
	<path fill="#FFFFFF" stroke="#FFFFFF" stroke-width="8.4399" stroke-miterlimit="10" d="M398.009,89.831
		c0,1.697-1.384,3.078-3.081,3.078c-1.698,0-3.083-1.381-3.083-3.078c0-1.703,1.385-3.083,3.083-3.083
		C396.625,86.748,398.009,88.127,398.009,89.831z"/>
	<path fill="#FFFFFF" stroke="#FFFFFF" stroke-width="8.4399" stroke-miterlimit="10" d="M562.818,89.831
		c0,1.697-1.384,3.078-3.083,3.078c-1.696,0-3.081-1.381-3.081-3.078c0-1.703,1.385-3.083,3.081-3.083
		C561.434,86.748,562.818,88.127,562.818,89.831z"/>
	<path fill="#FFFFFF" stroke="#FFFFFF" stroke-width="8.4399" stroke-miterlimit="10" d="M596.702,89.831
		c0,1.697-1.378,3.078-3.084,3.078c-1.696,0-3.072-1.381-3.072-3.078c0-1.703,1.376-3.083,3.072-3.083
		C595.324,86.748,596.702,88.127,596.702,89.831z"/>
	<path fill="#FFFFFF" stroke="#FFFFFF" stroke-width="8.4399" stroke-miterlimit="10" d="M252.717,89.831
		c0,1.697-1.384,3.078-3.081,3.078c-1.699,0-3.083-1.381-3.083-3.078c0-1.703,1.385-3.083,3.083-3.083
		C251.333,86.748,252.717,88.127,252.717,89.831z"/>
	<path fill="#FFFFFF" stroke="#FFFFFF" stroke-width="8.4399" stroke-miterlimit="10" d="M195.732,89.831
		c0,1.697-1.385,3.078-3.082,3.078c-1.699,0-3.083-1.381-3.083-3.078c0-1.703,1.385-3.083,3.083-3.083
		C194.348,86.748,195.732,88.127,195.732,89.831z"/>
	<path fill="#FFFFFF" stroke="#FFFFFF" stroke-width="8.4399" stroke-miterlimit="10" d="M504.803,43.278
		c0,1.699-1.379,3.08-3.084,3.08c-1.698,0-3.075-1.381-3.075-3.08c0-1.702,1.377-3.083,3.075-3.083
		C503.424,40.196,504.803,41.577,504.803,43.278z"/>
	<path fill="#FFFFFF" stroke="#FFFFFF" stroke-width="8.4399" stroke-miterlimit="10" d="M565.39,43.278
		c0,1.699-1.386,3.08-3.084,3.08c-1.696,0-3.082-1.381-3.082-3.08c0-1.702,1.386-3.083,3.082-3.083
		C564.004,40.196,565.39,41.577,565.39,43.278z"/>
	<path fill="#FFFFFF" stroke="#FFFFFF" stroke-width="8.4399" stroke-miterlimit="10" d="M596.181,43.278
		c0,1.699-1.377,3.08-3.082,3.08c-1.698,0-3.075-1.381-3.075-3.08c0-1.702,1.377-3.083,3.075-3.083
		C594.804,40.196,596.181,41.577,596.181,43.278z"/>
	<path fill="#FFFFFF" stroke="#FFFFFF" stroke-width="8.4399" stroke-miterlimit="10" d="M300.464,90.856
		c0,1.702-1.376,3.078-3.082,3.078c-1.699,0-3.075-1.376-3.075-3.078s1.376-3.082,3.075-3.082
		C299.088,87.774,300.464,89.154,300.464,90.856z"/>
	<path fill="#FFFFFF" stroke="#FFFFFF" stroke-width="8.4399" stroke-miterlimit="10" d="M300.464,43.278
		c0,1.699-1.376,3.08-3.082,3.08c-1.699,0-3.075-1.381-3.075-3.08c0-1.702,1.376-3.083,3.075-3.083
		C299.088,40.196,300.464,41.577,300.464,43.278z"/>
	<path fill="#FFFFFF" stroke="#FFFFFF" stroke-width="8.4399" stroke-miterlimit="10" d="M208.046,43.278
		c0,1.699-1.376,3.08-3.073,3.08c-1.707,0-3.084-1.381-3.084-3.08c0-1.702,1.377-3.083,3.084-3.083
		C206.669,40.196,208.046,41.577,208.046,43.278z"/>
	<path fill="#FFFFFF" stroke="#FFFFFF" stroke-width="8.4399" stroke-miterlimit="10" d="M231.321,43.278
		c0,1.699-1.375,3.08-3.082,3.08c-1.699,0-3.073-1.381-3.073-3.08c0-1.702,1.375-3.083,3.073-3.083
		C229.946,40.196,231.321,41.577,231.321,43.278z"/>
	<path fill="#FFFFFF" stroke="#FFFFFF" stroke-width="8.4399" stroke-miterlimit="10" d="M413.932,43.278
		c0,1.699-1.385,3.08-3.081,3.08c-1.699,0-3.084-1.381-3.084-3.08c0-1.702,1.385-3.083,3.084-3.083
		C412.547,40.196,413.932,41.577,413.932,43.278z"/>
	<path fill="#FFFFFF" stroke="#FFFFFF" stroke-width="8.4399" stroke-miterlimit="10" d="M439.087,44.306
		c0,1.697-1.385,3.078-3.083,3.078c-1.697,0-3.082-1.38-3.082-3.078c0-1.702,1.385-3.083,3.082-3.083
		C437.703,41.223,439.087,42.604,439.087,44.306z"/>
	<path fill="#FFFFFF" stroke="#FFFFFF" stroke-width="8.4399" stroke-miterlimit="10" d="M332.296,125.77
		c0,1.703-1.377,3.083-3.075,3.083c-1.705,0-3.084-1.38-3.084-3.083c0-1.698,1.379-3.079,3.084-3.079
		C330.919,122.691,332.296,124.072,332.296,125.77z"/>
	<path fill="#FFFFFF" stroke="#FFFFFF" stroke-width="8.4399" stroke-miterlimit="10" d="M355.91,126.284
		c0,1.699-1.377,3.078-3.084,3.078c-1.698,0-3.073-1.379-3.073-3.078c0-1.701,1.375-3.082,3.073-3.082
		C354.533,123.202,355.91,124.583,355.91,126.284z"/>
</g>
</svg>
